{
    "tags": [
	{ "tag": "a",	    "attributes": ["class", "href", "id", "style"],	"has_closing_tag": "true",	 "legal_parents": ["body", "div", "li", "p", "span", "td"]	},
	{ "tag": "br",	    "attributes": ["class", "id", "style"],             "has_closing_tag": "false",      "legal_parents": ["a", "body", "div", "li", "p", "ol", "td"]},
	{ "tag": "div",	    "attributes": ["class", "id", "style"],             "has_closing_tag": "true",	 "legal_parents": ["body", "div"]	},
        { "tag": "h1",      "attributes": ["class", "id", "style"],             "has_closing_tag": "true",       "legal_parents": ["body", "div", "li", "span"]  },
        { "tag": "h2",      "attributes": ["class", "id", "style"],             "has_closing_tag": "true",       "legal_parents": ["body", "div", "li", "span"]  },
        { "tag": "h3",      "attributes": ["class", "id", "style"],             "has_closing_tag": "true",       "legal_parents": ["body", "div", "li", "span"]  },
        { "tag": "h4",      "attributes": ["class", "id", "style"],             "has_closing_tag": "true",       "legal_parents": ["body", "div", "li"]  },
        { "tag": "h5",      "attributes": ["class", "id", "style"],             "has_closing_tag": "true",       "legal_parents": ["body", "div", "li"]  },
        { "tag": "h6",      "attributes": ["class", "id", "style"],             "has_closing_tag": "true",       "legal_parents": ["body", "div", "li"]  },
        { "tag": "hr",	    "attributes": ["class", "id", "style"],             "has_closing_tag": "false",      "legal_parents": ["a", "body", "div", "li", "p", "ol", "td"]},
	{ "tag": "img",	    "attributes": ["alt", "class", "id", "src", "style"],   "has_closing_tag": "false",	 "legal_parents": ["a", "body", "div", "li", "p", "td"]	},
	{ "tag": "li",	    "attributes": ["class", "id", "style"],             "has_closing_tag": "true",	 "legal_parents": ["ol", "ul"]	},
	{ "tag": "ol",	    "attributes": ["class", "id", "style"],             "has_closing_tag": "true",	 "legal_parents": ["body", "div", "li"]	},
	{ "tag": "p",	    "attributes": ["class", "id", "style"],             "has_closing_tag": "true",	 "legal_parents": ["body", "div"]		},
        { "tag": "span",    "attributes": ["class", "id", "style"],             "has_closing_tag": "true",	 "legal_parents": ["body", "div"]		},
        { "tag": "strong",  "attributes": ["class", "id", "style"],             "has_closing_tag": "true",	 "legal_parents": ["body", "div"]		},
	{ "tag": "text",    "attributes": ["class", "style", "id", "text"],     "has_closing_tag": "false",      "legal_parents": ["a", "div", "h1", "h2", "h3", "h4", "h5", "h6", "li", "p", "span", "strong", "td", "title"]		},
	{ "tag": "table",   "attributes": ["class", "id", "style"],             "has_closing_tag": "true",	 "legal_parents": ["body", "div"]	},
	{ "tag": "td",	    "attributes": ["class", "id", "style"],             "has_closing_tag": "true",	 "legal_parents": ["tr"]	},
	{ "tag": "tr",	    "attributes": ["class", "id", "style"],             "has_closing_tag": "true",	 "legal_parents": ["table"]	},
	{ "tag": "ul",	    "attributes": ["class", "id", "style"],             "has_closing_tag": "true",	 "legal_parents": ["body", "div", "li"]	}
    ]
}